{
  "project_info": {
    "project_number": "736987388962",
    "firebase_url": "https://booking-hotel-b246e.firebaseio.com",
    "project_id": "booking-hotel-b246e",
    "storage_bucket": "booking-hotel-b246e.appspot.com"
  },
  "client": [
    {
      "client_info": {
        "mobilesdk_app_id": "1:736987388962:android:cdea9caa092b2885",
        "android_client_info": {
          "package_name": "com.bote.mobile"
        }
      },
      "oauth_client": [
        {
          "client_id": "736987388962-usrf73sd0r53o55e5da5iv5ch91nrd4c.apps.googleusercontent.com",
          "client_type": 3
        }
      ],
      "api_key": [
        {
          "current_key": "AIzaSyBLf2N3C2qpG7Qn2UmOT_ZRgN7sBA7qJXQ"
        }
      ],
      "services": {
        "appinvite_service": {
          "other_platform_oauth_client": [
            {
              "client_id": "736987388962-usrf73sd0r53o55e5da5iv5ch91nrd4c.apps.googleusercontent.com",
              "client_type": 3
            }
          ]
        }
      }
    }
  ],
  "configuration_version": "1"
}